<<<<<<< HEAD
m_EditorVersion: 5.2.0f3
=======
<<<<<<< HEAD
m_EditorVersion: 5.2.0f3
=======
<<<<<<< HEAD
m_EditorVersion: 5.1.2f1
=======
<<<<<<< HEAD
m_EditorVersion: 5.1.2f1
=======
m_EditorVersion: 5.2.0f3
>>>>>>> da428835ef63e63403caff28f010fd6567b54057
>>>>>>> 894c984ff6e8b7c09806fc63cbfaede8100a1f35
>>>>>>> 2d330422b737f9f409dbcab6bf8af3153579c609
>>>>>>> 8e26d8636d351f4788510dd1fb96c1b8e992186f
m_StandardAssetsVersion: 0
